<svg width="12" height="8" viewBox="0 0 12 8" fill="none" xmlns="http://www.w3.org/2000/svg">
    <path d="M2.11997 0.709941L5.99997 4.58994L9.87997 0.709941C10.27 0.319942 10.9 0.319942 11.29 0.709941C11.68 1.09994 11.68 1.72994 11.29 2.11994L6.69997 6.70994C6.30997 7.09994 5.67997 7.09994 5.28997 6.70994L0.699971 2.11994C0.309971 1.72994 0.309971 1.09994 0.699971 0.709941C1.08997 0.329941 1.72997 0.319942 2.11997 0.709941Z" fill="#373745"/>
</svg>
